*********************************** EDGES
0	0	200	0	f	1	3	0,0,0
0	0	0	100	f	1	3	0,0,0
200	0	200	100	f	1	3	0,0,0
0	100	200	100	f	1	3	0,0,0
*********************************** AREA 1
17.159	2.7250	17.137	22.1	f	1	5	10,10,80
1.062	2.7375	17.159	2.7250	f	1	5	10,10,80
1.037	21.721	1.062	2.7375	f	1	5	10,10,80
17.900	56.127	1.037	21.721	f	1	5	10,10,80
17.975	82.040	17.900	56.127	f	1	5	10,10,80
20.050	86.609	17.975	82.040	f	1	5	10,10,80
23.900	89.259	20.050	86.609	f	1	5	10,10,80
27.902	88.809	23.900	89.259	f	1	5	10,10,80
30.883	86.411	27.902	88.809	f	1	5	10,10,80
32.699	80.841	30.883	86.411	f	1	5	10,10,80
32.595	63.480	32.699	80.841	f	1	5	10,10,80
43.544	57.616	32.595	63.480	f	1	5	10,10,80
54.167	18.473	43.544	57.616	f	1	5	10,10,80
54.017	13.613	54.167	18.473	f	1	5	255,200,200		DOOR1
48.036	13.668	54.017	13.613	f	1	5	10,10,80
45.099	11.296	48.036	13.668	f	1	5	10,10,80
39.188	10.413	45.099	11.296	f	1	5	10,10,80
25.630	38.556	39.188	10.413	f	1	5	10,10,80
25.310	79.951	25.630	38.556	f	1	5	10,10,80	
25.670	38.437	25.310	79.951	f	1	5	10,10,80
17.137	22.130	25.670	38.437	f	1	5	10,10,80
*********************************** AREA 2
64.489	13.6224	54.319	13.6452	f	1	5	42,118,123
67.527	12.4130	64.489	13.6224	f	1	5	42,118,123
100.49	12.4250	67.527	12.4130	f	1	5	42,118,123
103.94	13.8625	100.49	12.4250	f	1	5	42,118,123
105.72	16.1683	103.94	13.8625	f	1	5	42,118,123
106.45	19.1556	105.72	16.1683	f	1	5	42,118,123
105.72	24.0306	106.45	19.1556	f	1	5	42,118,123
104.53	25.8532	105.72	24.0306	f	1	5	42,118,123
101.45	27.7028	104.53	25.8532	f	1	5	42,118,123
60.803	27.7307	101.45	27.7028	f	1	5	42,118,123
54.219	18.4347	60.803	27.7307	f	1	2	255,200,200		DOOR2
*********************************** AREA 3
43.856	57.695	54.2	18.467	f	-1	5	200,100,0	1
60.715	68.253	43.856	57.695	f	1	5	200,100,0
61.287	81.900	60.715	68.253	f	1	5	200,100,0
75.074	55.274	75.163	69.735	f	1	5	200,100,0
83.741	55.274	75.074	55.274	f	1	5	200,100,0
84.966	56.174	83.741	55.274	f	1	5	200,100,0
98.285	56.390	84.966	56.174	f	1	5	200,100,0
102.726	53.745	98.285	56.390	f	1	5	200,100,0
103.751	51.820	102.726	53.745	f	1	5	200,100,0
104.003	45.397	103.751	51.820	f	1	5	200,100,0
102.764	43.277	104.003	45.397	f	1	5	200,100,0
99.454	41.294	102.764	43.277	f	1	5	200,100,0
96.694	41.031	99.454	41.294	f	1	5	200,100,0
75.601	41.058	96.694	41.031	f	1	5	200,100,0
75.428	27.743	75.601	41.058	f	1	5	200,100,0
60.79	27.571	75.428	27.743	f	1	1	0,0,0
*** Platforms
56	25	56	50	f	0.2	20	255,153,68
65	38	65	50	f	1	20	255,153,68
68	35	68	28	f	1	20	255,153,68
70	39	70	45	f	1	20	255,153,68
90.4	41.2	90.4	43.2	f	1	20	255,153,68
90.4	45	90.4	52	f	1	20	255,153,68	
86	50	86	56.5	t	1	20	5,103,160
90.45	45	60	45	f	1	5	255,153,68
86.83	45.71	67.08	56.5	f	1	20	255,153,68
67	56.5	61	68	f	1	20	255,153,68
90.42	50.257	86.11	50.4	f	1	10	255,200,200		DOOR3
********************************* AREA 4
63.205	85.79	61.245	81.98	f	1	5	100,100,100
63.205	85.79	68.81	87.89	f	1	5	100,100,100
68.81	87.89	110.18	88.03	f	1	5	100,100,100
110.18	88.03	68.81	87.89	f	1	5	100,100,100
121.43	78.41	110.18	88.03	f	1	5	100,100,100
75.08	69.67	117.33	69.94	f	1	5	100,100,100
********************************* AREA 5
136.94	73.88	117.33	69.83	f	1	5	100,100,250
144.53	74.26	136.94	73.88	f	1	5	100,100,250
150.21	69.03	144.53	74.26	f	1	5	100,100,250
149.41	61.46	150.21	69.03	f	1	5	100,100,250
142.09	57.13	149.41	61.46	f	1	5	100,100,250
131.63	53.83	142.09	57.13	f	1	5	100,100,250
121.19	45.15	131.63	53.83	f	1	5	100,100,250
118.04	36.67	121.19	45.15	f	1	5	100,100,250
118.48	28.69	118.04	36.67	f	1	5	100,100,250
122.64	19.35	118.48	28.69	f	1	5	100,100,250
129.76	13.60	122.64	19.35	f	1	5	100,100,250
145.38	11.19	129.76	13.60	f	1	5	100,100,250
164.79	11.07	145.38	11.19	f	1	5	100,100,250
180.33	11.11	164.79	11.07	f	1	5	100,100,250
161.24	20.48	179.71	16.83	f	1	5	100,100,250
158.62	20.44	161.24	20.48	f	1	5	100,100,250
139.05	25.76	158.62	20.44	f	1	5	100,100,250
133.52	28.75	139.05	25.76	f	1	5	100,100,250
132.48	31.65	133.52	28.75	f	1	5	100,100,250
133.19	34.91	132.48	31.65	f	1	5	100,100,250
136.17	37.33	133.19	34.91	f	1	5	100,100,250
149.85	41.85	136.17	37.33	f	1	5	100,100,250
158.37	46.81	149.85	41.85	f	1	5	100,100,250
162.46	51.47	158.37	46.81	f	1	5	100,100,250
164.57	58.01	162.46	51.47	f	1	5	100,100,250
165.26	61.62	164.57	58.01	f	1	5	100,100,250
164.62	71.35	165.26	61.62	f	1	5	100,100,250
160.89	80.22	164.62	71.35	f	1	5	100,100,250	
152.46	86.92	160.89	80.22	f	1	5	100,100,250
141.05	89.44	152.46	86.92	f	1	5	100,100,250
129.26	86.55	141.05	89.44	f	1	5	100,100,250
121.35	78.48	129.26	86.55	f	1	5	100,100,250